alembic==1.6.5
awsebcli==3.20.1
botocore==1.21.24
cement==2.8.2
certifi==2020.12.5
chardet==4.0.0
click==8.0.1
colorama==0.4.3
dnspython==2.2.0
email-validator==1.1.3
Flask==2.2.2
Flask-Cors==3.0.10
Flask-HTTPAuth==4.7.0
Flask-Login==0.6.2
Flask-Migrate==3.1.0
Flask-SQLAlchemy==2.5.1
Flask-WTF==1.0.1
future==0.16.0
greenlet==1.1.1
idna==2.10
importlib-metadata==4.6.4
itsdangerous==2.0.1
Jinja2==3.0.1
jmespath==0.10.0
Mako==1.1.5
Markdown==3.3.6
packaging==21.0
pathspec==0.5.9
Pillow==9.2.0
pyparsing==2.4.7
python-dateutil==2.8.1
python-dotenv==0.20.0
PyYAML==5.4.1
requests==2.25.1
semantic-version==2.8.5
six==1.14.0
SQLAlchemy==1.4.40
termcolor==1.1.0
toml==0.10.2
typing-extensions==3.10.0.0
urllib3==1.25.11
wcwidth==0.1.9
webencodings==0.5.1
Werkzeug==2.2.2
wincertstore==0.2
WTForms==2.3.3
zipp==3.5.0
